%YAML 1.1
%TAG !u! tag:unity3d.com,2011:
--- !u!1045 &1
EditorBuildSettings:
  m_ObjectHideFlags: 0
  serializedVersion: 2
  m_Scenes:
  - enabled: 1
    path: Assets/Scenes/MainMenu.unity
    guid: 644308db267617a4cbd01aed63193652
  - enabled: 0
    path: Assets/Scenes/AsteroidsMainOLD.unity
    guid: 138cbc826b2155d478073ed247d19564
  - enabled: 1
    path: Assets/Scenes/AsteroidsMain.unity
    guid: 54db700c416de844e9604d193bdb1205
  - enabled: 1
    path: Assets/Scenes/GameOver.unity
    guid: 59e88e85beabddb4f9973312a04ee43e
  m_configObjects: {}
